ℹ Loading lasso-boot
`summarise()` has grouped output by 'method'. You can override using the
`.groups` argument.
# A tibble: 200 × 3
# Groups:   method [2]
   method                  variable coverage
   <chr>                   <chr>       <dbl>
 1 relaxed_lasso_posterior A1          0.4  
 2 ridge                   A1          0    
 3 relaxed_lasso_posterior B1          0.825
 4 ridge                   B1          0    
 5 relaxed_lasso_posterior N1          0.987
 6 ridge                   N1          0.97 
 7 relaxed_lasso_posterior N10         0.981
 8 ridge                   N10         0.957
 9 relaxed_lasso_posterior N11         0.984
10 ridge                   N11         0.964
# ℹ 190 more rows
…
